\relax 
\providecommand\hyper@newdestlabel[2]{}
\FN@pp@footnotehinttrue 
\@writefile{toc}{\contentsline {chapter}{\numberline {4}Evaluaci\IeC {\'o}n de la soluci\IeC {\'o}n}{52}{chapter.4}}
\@writefile{lof}{\addvspace {10\p@ }}
\@writefile{lot}{\addvspace {10\p@ }}
\@writefile{loa}{\addvspace {10\p@ }}
\@writefile{toc}{\contentsline {section}{\numberline {4.1}Conjunto de datos utilizados}{52}{section.4.1}}
\newlabel{fig:comp}{{\caption@xref {fig:comp}{ on input line 14}}{53}{Conjunto de datos utilizados}{figure.caption.34}{}}
\@writefile{lof}{\contentsline {figure}{\numberline {4.1}{\ignorespaces Captura de video del Jueves 18 de Octubre a las 13:58\relax }}{53}{figure.caption.34}}
\@writefile{toc}{\contentsline {section}{\numberline {4.2}An\IeC {\'a}lisis de permanencia de personas}{54}{section.4.2}}
\@writefile{toc}{\contentsline {subsection}{\numberline {4.2.1}Procedimiento de evaluaci\IeC {\'o}n}{55}{subsection.4.2.1}}
\newlabel{fig:comp}{{\caption@xref {fig:comp}{ on input line 47}}{55}{Procedimiento de evaluación}{figure.caption.35}{}}
\@writefile{lof}{\contentsline {figure}{\numberline {4.2}{\ignorespaces Captura de video conteniendo las detecciones y el c\IeC {\'o}digo de seguimiento\relax }}{55}{figure.caption.35}}
\@writefile{lof}{\contentsline {figure}{\numberline {4.3}{\ignorespaces Ilustraci\IeC {\'o}n de un cambio de identidad por p\IeC {\'e}rdida de detecci\IeC {\'o}n\relax }}{56}{figure.caption.36}}
\newlabel{fig:Ilustracion-Per-Det}{{4.3}{56}{Ilustración de un cambio de identidad por pérdida de detección\relax }{figure.caption.36}{}}
\@writefile{lof}{\contentsline {figure}{\numberline {4.4}{\ignorespaces Ilustraci\IeC {\'o}n de un cambio de identidad por p\IeC {\'e}rdida de detecci\IeC {\'o}n\relax }}{56}{figure.caption.37}}
\@writefile{toc}{\contentsline {subsection}{\numberline {4.2.2}Resultados de la evaluaci\IeC {\'o}n}{57}{subsection.4.2.2}}
\@writefile{lof}{\contentsline {figure}{\numberline {4.5}{\ignorespaces Mesas seleccionadas para la evaluaci\IeC {\'o}n\relax }}{57}{figure.caption.38}}
\newlabel{fig:mesas}{{4.5}{57}{Mesas seleccionadas para la evaluación\relax }{figure.caption.38}{}}
\@writefile{lof}{\contentsline {figure}{\numberline {4.6}{\ignorespaces Resultados de la evaluaci\IeC {\'o}n realizada sobre los videos del Jueves 18 de Octubre. En la tabla del mediod\IeC {\'\i }a se puede observar, por ejemplo, que 38 de los 49 cambios de identidad identificados en la mesa 3 se deben a que se perdi\IeC {\'o} la detecci\IeC {\'o}n de la persona que portaba esa identificaci\IeC {\'o}n. Adem\IeC {\'a}s, como se contabilizaron en total 12 personas sentadas en dicha mesa, y 49 cambios de identidad, se produjeron en promedio 4,08 cambios de identidad por persona (49/12)\relax }}{58}{figure.caption.39}}
\newlabel{fig:tabla-18-oct}{{4.6}{58}{Resultados de la evaluación realizada sobre los videos del Jueves 18 de Octubre. En la tabla del mediodía se puede observar, por ejemplo, que 38 de los 49 cambios de identidad identificados en la mesa 3 se deben a que se perdió la detección de la persona que portaba esa identificación. Además, como se contabilizaron en total 12 personas sentadas en dicha mesa, y 49 cambios de identidad, se produjeron en promedio 4,08 cambios de identidad por persona (49/12)\relax }{figure.caption.39}{}}
\newlabel{fig:comp}{{\caption@xref {fig:comp}{ on input line 122}}{59}{Resultados de la evaluación}{figure.caption.40}{}}
\@writefile{lof}{\contentsline {figure}{\numberline {4.7}{\ignorespaces Resultados de la evaluaci\IeC {\'o}n realizada sobre los videos del Lunes 22 de Octubre\relax }}{59}{figure.caption.40}}
\newlabel{fig:tabla-22-oct}{{4.7}{59}{Resultados de la evaluación realizada sobre los videos del Lunes 22 de Octubre\relax }{figure.caption.40}{}}
\@writefile{toc}{\contentsline {subsubsection}{Generaci\IeC {\'o}n de base de datos sin errores}{59}{section*.41}}
\@writefile{toc}{\contentsline {subsubsection}{Resultados obtenidos luego de la correcci\IeC {\'o}n}{60}{section*.42}}
\@writefile{lof}{\contentsline {figure}{\numberline {4.8}{\ignorespaces B\IeC {\'u}squedas realizadas y los mapas de calor de las detecciones en cada una.\relax }}{60}{figure.caption.43}}
\newlabel{fig:busquedas}{{4.8}{60}{Búsquedas realizadas y los mapas de calor de las detecciones en cada una.\relax }{figure.caption.43}{}}
\@writefile{lof}{\contentsline {figure}{\numberline {4.9}{\ignorespaces Histograma de tiempos de permanencia para la mesa 1\relax }}{61}{figure.caption.44}}
\newlabel{fig:hist1}{{4.9}{61}{Histograma de tiempos de permanencia para la mesa 1\relax }{figure.caption.44}{}}
\@writefile{lot}{\contentsline {table}{\numberline {4.1}{\ignorespaces Minutos de permanencia para las personas vistas en las tres mesas para el conjunto de detecciones obtenidas de forma autom\IeC {\'a}tica y el conjunto de datos en el que se corrigieron los erores de cambios de identidad.\relax }}{62}{table.caption.45}}
\newlabel{tab:mesas}{{4.1}{62}{Minutos de permanencia para las personas vistas en las tres mesas para el conjunto de detecciones obtenidas de forma automática y el conjunto de datos en el que se corrigieron los erores de cambios de identidad.\relax }{table.caption.45}{}}
\@writefile{lof}{\contentsline {figure}{\numberline {4.10}{\ignorespaces Histograma de tiempos de permanencia para la mesa 2\relax }}{62}{figure.caption.46}}
\newlabel{fig:hist2}{{4.10}{62}{Histograma de tiempos de permanencia para la mesa 2\relax }{figure.caption.46}{}}
\@writefile{toc}{\contentsline {subsection}{\numberline {4.2.3}Conclusiones}{62}{subsection.4.2.3}}
\@writefile{lof}{\contentsline {figure}{\numberline {4.11}{\ignorespaces Histograma de tiempos de permanencia para la mesa 3\relax }}{63}{figure.caption.47}}
\newlabel{fig:hist3}{{4.11}{63}{Histograma de tiempos de permanencia para la mesa 3\relax }{figure.caption.47}{}}
\@writefile{toc}{\contentsline {section}{\numberline {4.3}B\IeC {\'u}squeda de pose}{64}{section.4.3}}
\@writefile{toc}{\contentsline {subsection}{\numberline {4.3.1}B\IeC {\'u}squeda por reglas}{65}{subsection.4.3.1}}
\@writefile{toc}{\contentsline {subsection}{\numberline {4.3.2}B\IeC {\'u}squeda por semejanza}{65}{subsection.4.3.2}}
\@writefile{loa}{\contentsline {algocf}{\numberline {2}{\ignorespaces Criterio de semejanza\relax }}{66}{algocf.2}}
\newlabel{alg:similitud}{{2}{66}{Búsqueda por semejanza}{algocf.2}{}}
\@writefile{toc}{\contentsline {subsection}{\numberline {4.3.3}Procedimiento de evaluaci\IeC {\'o}n}{67}{subsection.4.3.3}}
\@writefile{lof}{\contentsline {figure}{\numberline {4.12}{\ignorespaces Ejemplos de la pose objetivo buscada\relax }}{67}{figure.caption.49}}
\newlabel{fig:pose-objetivo}{{4.12}{67}{Ejemplos de la pose objetivo buscada\relax }{figure.caption.49}{}}
\@writefile{toc}{\contentsline {subsection}{\numberline {4.3.4}Resultados obtenidos}{68}{subsection.4.3.4}}
\@writefile{lof}{\contentsline {figure}{\numberline {4.13}{\ignorespaces Ejemplos de falsos positivos. A la izquierda se ve un error de detecci\IeC {\'o}n, ya que OpenPose detecta incorrectamente que la persona tiene el brazo derecho levantado. La imagen del centro se corresponde con un movimiento involuntario, ya que la persona en realidad estaba desperez\IeC {\'a}ndose y no llamando al mozo. A la derecha se ve c\IeC {\'o}mo, por la perspectiva de la c\IeC {\'a}mara, la persona parece estar alzando su brazo cuando en realidad lo est\IeC {\'a} extendiendo hacia adelante\relax }}{69}{figure.caption.50}}
\newlabel{fig:falsos-positivos}{{4.13}{69}{Ejemplos de falsos positivos. A la izquierda se ve un error de detección, ya que OpenPose detecta incorrectamente que la persona tiene el brazo derecho levantado. La imagen del centro se corresponde con un movimiento involuntario, ya que la persona en realidad estaba desperezándose y no llamando al mozo. A la derecha se ve cómo, por la perspectiva de la cámara, la persona parece estar alzando su brazo cuando en realidad lo está extendiendo hacia adelante\relax }{figure.caption.50}{}}
\@writefile{lof}{\contentsline {figure}{\numberline {4.14}{\ignorespaces Curva ROC de los clasificadores en el conjunto de datos para la pose objetivo.\relax }}{70}{figure.caption.51}}
\newlabel{fig:curvaroc}{{4.14}{70}{Curva ROC de los clasificadores en el conjunto de datos para la pose objetivo.\relax }{figure.caption.51}{}}
\@writefile{lot}{\contentsline {table}{\numberline {4.2}{\ignorespaces Categorizaci\IeC {\'o}n de las clasificaciones por regla realizadas\relax }}{70}{table.caption.52}}
\newlabel{tab:erroresregla}{{4.2}{70}{Categorización de las clasificaciones por regla realizadas\relax }{table.caption.52}{}}
\FN@pp@footnotehinttrue 
\@setckpt{capitulos/chap04}{
\setcounter{page}{73}
\setcounter{equation}{0}
\setcounter{enumi}{0}
\setcounter{enumii}{0}
\setcounter{enumiii}{0}
\setcounter{enumiv}{0}
\setcounter{footnote}{0}
\setcounter{mpfootnote}{0}
\setcounter{part}{0}
\setcounter{chapter}{4}
\setcounter{section}{3}
\setcounter{subsection}{4}
\setcounter{subsubsection}{0}
\setcounter{paragraph}{0}
\setcounter{subparagraph}{0}
\setcounter{figure}{14}
\setcounter{table}{2}
\setcounter{Changes@AuthorCount}{2}
\setcounter{Changes@Author}{0}
\setcounter{Changes@AddCount}{0}
\setcounter{Changes@DeleteCount}{0}
\setcounter{Changes@ReplaceCount}{0}
\setcounter{pp@next@reset}{14}
\setcounter{@fnserial}{13}
\setcounter{@pps}{0}
\setcounter{@ppsavesec}{0}
\setcounter{@ppsaveapp}{0}
\setcounter{parentequation}{0}
\setcounter{float@type}{4}
\setcounter{ContinuedFloat}{0}
\setcounter{Item}{0}
\setcounter{Hfootnote}{13}
\setcounter{bookmark@seq@number}{34}
\setcounter{linenumber}{0}
\setcounter{LN@truepage}{79}
\setcounter{@todonotes@numberoftodonotes}{0}
\setcounter{institute}{1}
\setcounter{seconduniversity}{0}
\setcounter{thirduniversity}{0}
\setcounter{keywords}{0}
\setcounter{foreignkeywords}{5}
\setcounter{su@anzahl}{0}
\setcounter{LT@tables}{0}
\setcounter{LT@chunks}{0}
\setcounter{NAT@ctr}{0}
\setcounter{Changes@AddCountPRB}{0}
\setcounter{Changes@DeleteCountPRB}{0}
\setcounter{Changes@ReplaceCountPRB}{0}
\setcounter{AlgoLine}{0}
\setcounter{algocfline}{2}
\setcounter{algocfproc}{2}
\setcounter{algocf}{2}
\setcounter{section@level}{2}
}
