\relax 
\providecommand\hyper@newdestlabel[2]{}
\FN@pp@footnotehinttrue 
\@writefile{toc}{\contentsline {chapter}{\numberline {3}Soluci\IeC {\'o}n propuesta}{38}{chapter.3}}
\@writefile{lof}{\addvspace {10\p@ }}
\@writefile{lot}{\addvspace {10\p@ }}
\@writefile{loa}{\addvspace {10\p@ }}
\@writefile{toc}{\contentsline {section}{\numberline {3.1}Introducci\IeC {\'o}n}{38}{section.3.1}}
\@writefile{toc}{\contentsline {section}{\numberline {3.2}Arquitectura}{39}{section.3.2}}
\@writefile{lof}{\contentsline {figure}{\numberline {3.1}{\ignorespaces Arquitectura de la soluci\IeC {\'o}n propuesta\relax }}{40}{figure.caption.27}}
\newlabel{fig:arq}{{3.1}{40}{Arquitectura de la solución propuesta\relax }{figure.caption.27}{}}
\@writefile{toc}{\contentsline {section}{\numberline {3.3}Detalle de la arquitectura}{41}{section.3.3}}
\@writefile{toc}{\contentsline {subsubsection}{Detecci\IeC {\'o}n de personas}{41}{section*.28}}
\FN@pp@footnote@aux{7}{41}
\@writefile{toc}{\contentsline {subsubsection}{Seguimiento de personas}{42}{section*.29}}
\@writefile{lof}{\contentsline {figure}{\numberline {3.2}{\ignorespaces Comparaci\IeC {\'o}n entre cajas delimitadoras.\relax }}{44}{figure.caption.30}}
\newlabel{fig:cajas}{{3.2}{44}{Comparación entre cajas delimitadoras.\relax }{figure.caption.30}{}}
\@writefile{toc}{\contentsline {subsubsection}{An\IeC {\'a}lisis de las detecciones}{45}{section*.31}}
\@writefile{toc}{\contentsline {subsection}{\numberline {3.3.1}B\IeC {\'u}squeda de poses}{46}{subsection.3.3.1}}
\@writefile{toc}{\contentsline {section}{\numberline {3.4}Prototipo realizado}{47}{section.3.4}}
\newlabel{Prototipo}{{3.4}{47}{Prototipo realizado}{section.3.4}{}}
\citation{DeepSortRrepo}
\citation{pykalman}
\FN@pp@footnote@aux{8}{48}
\FN@pp@footnote@aux{9}{48}
\FN@pp@footnote@aux{10}{48}
\FN@pp@footnote@aux{11}{48}
\FN@pp@footnote@aux{12}{48}
\FN@pp@footnote@aux{13}{48}
\@writefile{lof}{\contentsline {figure}{\numberline {3.3}{\ignorespaces Ilustraci\IeC {\'o}n de la interfaz Web de consulta disponible al usuario. El \IeC {\'a}rea de inter\IeC {\'e}s dibujada es la delimitada por el pol\IeC {\'\i }gono rojo. La numeraci\IeC {\'o}n de las mesas fue realizada a los efectos de la evaluaci\IeC {\'o}n, como se describe m\IeC {\'a}s adelante en dicha secci\IeC {\'o}n.\relax }}{50}{figure.caption.32}}
\newlabel{fig:interfaz-web-busqueda}{{3.3}{50}{Ilustración de la interfaz Web de consulta disponible al usuario. El área de interés dibujada es la delimitada por el polígono rojo. La numeración de las mesas fue realizada a los efectos de la evaluación, como se describe más adelante en dicha sección.\relax }{figure.caption.32}{}}
\@writefile{lof}{\contentsline {figure}{\numberline {3.4}{\ignorespaces Ilustraci\IeC {\'o}n de lo que retorna la interfaz Web al usuario luego de completada una b\IeC {\'u}squeda. A la izquierda se presenta un histograma que resume la permanencia de las personas. A la derecha, arriba, se ilustran los filtros por tiempo que el usuario puede utilizar para refinar los resultados, y a la derecha, abajo, se enumeran las personas que fueron detectadas en la zona consultada\relax }}{50}{figure.caption.33}}
\newlabel{fig:int-web-resultados}{{3.4}{50}{Ilustración de lo que retorna la interfaz Web al usuario luego de completada una búsqueda. A la izquierda se presenta un histograma que resume la permanencia de las personas. A la derecha, arriba, se ilustran los filtros por tiempo que el usuario puede utilizar para refinar los resultados, y a la derecha, abajo, se enumeran las personas que fueron detectadas en la zona consultada\relax }{figure.caption.33}{}}
\FN@pp@footnotehinttrue 
\@setckpt{capitulos/chap03}{
\setcounter{page}{52}
\setcounter{equation}{4}
\setcounter{enumi}{0}
\setcounter{enumii}{0}
\setcounter{enumiii}{0}
\setcounter{enumiv}{0}
\setcounter{footnote}{0}
\setcounter{mpfootnote}{0}
\setcounter{part}{0}
\setcounter{chapter}{3}
\setcounter{section}{4}
\setcounter{subsection}{0}
\setcounter{subsubsection}{0}
\setcounter{paragraph}{0}
\setcounter{subparagraph}{0}
\setcounter{figure}{4}
\setcounter{table}{0}
\setcounter{Changes@AuthorCount}{2}
\setcounter{Changes@Author}{0}
\setcounter{Changes@AddCount}{0}
\setcounter{Changes@DeleteCount}{0}
\setcounter{Changes@ReplaceCount}{0}
\setcounter{pp@next@reset}{14}
\setcounter{@fnserial}{13}
\setcounter{@pps}{0}
\setcounter{@ppsavesec}{0}
\setcounter{@ppsaveapp}{0}
\setcounter{parentequation}{0}
\setcounter{float@type}{4}
\setcounter{ContinuedFloat}{0}
\setcounter{Item}{0}
\setcounter{Hfootnote}{13}
\setcounter{bookmark@seq@number}{23}
\setcounter{linenumber}{0}
\setcounter{LN@truepage}{58}
\setcounter{@todonotes@numberoftodonotes}{0}
\setcounter{institute}{1}
\setcounter{seconduniversity}{0}
\setcounter{thirduniversity}{0}
\setcounter{keywords}{0}
\setcounter{foreignkeywords}{5}
\setcounter{su@anzahl}{0}
\setcounter{LT@tables}{0}
\setcounter{LT@chunks}{0}
\setcounter{NAT@ctr}{0}
\setcounter{Changes@AddCountPRB}{0}
\setcounter{Changes@DeleteCountPRB}{0}
\setcounter{Changes@ReplaceCountPRB}{0}
\setcounter{AlgoLine}{0}
\setcounter{algocfline}{1}
\setcounter{algocfproc}{1}
\setcounter{algocf}{1}
\setcounter{section@level}{1}
}
