\relax 
\providecommand\hyper@newdestlabel[2]{}
\citation{retail-bifurcation}
\citation{accenture}
\citation{marketing-charts}
\FN@pp@footnotehinttrue 
\@writefile{toc}{\contentsline {chapter}{\numberline {2}Fundamentos te\IeC {\'o}ricos}{5}{chapter.2}}
\@writefile{lof}{\addvspace {10\p@ }}
\@writefile{lot}{\addvspace {10\p@ }}
\@writefile{loa}{\addvspace {10\p@ }}
\@writefile{toc}{\contentsline {section}{\numberline {2.1}An\IeC {\'a}lisis de p\IeC {\'u}blico en espacios}{5}{section.2.1}}
\citation{meraki}
\citation{inmarket}
\citation{swirl}
\citation{brickstream}
\citation{xovis}
\citation{irisys}
\citation{amazongo}
\citation{scognition}
\FN@pp@footnote@aux{1}{6}
\@writefile{toc}{\contentsline {section}{\numberline {2.2}Detectores de personas}{7}{section.2.2}}
\citation{FisElsc}
\citation{FisElsc}
\citation{FisElsc}
\@writefile{toc}{\contentsline {subsection}{\numberline {2.2.1}Deformable Parts Model}{8}{subsection.2.2.1}}
\providecommand*\caption@xref[2]{\@setref\relax\@undefined{#1}}
\newlabel{fig:comp}{{\caption@xref {fig:comp}{ on input line 41}}{9}{Deformable Parts Model}{figure.caption.2}{}}
\@writefile{lof}{\contentsline {figure}{\numberline {2.1}{\ignorespaces Imagen ilustrativa incluida en el art\IeC {\'\i }culo original Fischler y Elschlager \cite  {FisElsc}\relax }}{9}{figure.caption.2}}
\citation{PFelz}
\citation{Ever}
\citation{PFelz}
\citation{PFelz}
\newlabel{fig:comp}{{\caption@xref {fig:comp}{ on input line 70}}{10}{Deformable Parts Model}{figure.caption.3}{}}
\@writefile{lof}{\contentsline {figure}{\numberline {2.2}{\ignorespaces Resultados del trabajo de P. Felzenswalb sobre Pascal VOC 2010.\cite  {PFelz}\relax }}{10}{figure.caption.3}}
\citation{PictStruct}
\citation{cao2017realtime}
\@writefile{toc}{\contentsline {subsection}{\numberline {2.2.2}OpenPose}{11}{subsection.2.2.2}}
\citation{cao2017realtime}
\citation{cao2017realtime}
\citation{cao2017realtime}
\citation{cao2017realtime}
\citation{Wei-et-al}
\FN@pp@footnote@aux{2}{12}
\@writefile{toc}{\contentsline {subsubsection}{M\IeC {\'e}todo}{12}{section*.4}}
\newlabel{fig:comp}{{\caption@xref {fig:comp}{ on input line 92}}{12}{Método}{figure.caption.5}{}}
\@writefile{lof}{\contentsline {figure}{\numberline {2.3}{\ignorespaces Resumen de la metodolog\IeC {\'\i }a detr\IeC {\'a}s de OpenPose \cite  {cao2017realtime}\relax }}{12}{figure.caption.5}}
\newlabel{openpose-pipeline}{{2.3}{12}{Resumen de la metodología detrás de OpenPose \cite {cao2017realtime}\relax }{figure.caption.5}{}}
\FN@pp@footnote@aux{3}{12}
\@writefile{toc}{\contentsline {subsubsection}{Detecci\IeC {\'o}n y Asociaci\IeC {\'o}n simult\IeC {\'a}neas}{12}{section*.6}}
\citation{VGG-19}
\newlabel{fig:comp}{{\caption@xref {fig:comp}{ on input line 105}}{13}{Detección y Asociación simultáneas}{figure.caption.7}{}}
\@writefile{lof}{\contentsline {figure}{\numberline {2.4}{\ignorespaces Arquitectura de OpenPose \cite  {cao2017realtime}\relax }}{13}{figure.caption.7}}
\FN@pp@footnote@aux{4}{13}
\citation{cao2017realtime}
\citation{cao2017realtime}
\newlabel{funcion-objetivo}{{2.7}{14}{Detección y Asociación simultáneas}{equation.2.2.7}{}}
\@writefile{toc}{\contentsline {subsubsection}{Mapas de confianza para la detecci\IeC {\'o}n de partes}{14}{section*.8}}
\@writefile{toc}{\contentsline {subsubsection}{Campos de afinidad para la asociaci\IeC {\'o}n entre partes}{14}{section*.9}}
\citation{cao2017realtime}
\citation{cao2017realtime}
\newlabel{fig:comp}{{\caption@xref {fig:comp}{ on input line 165}}{15}{Campos de afinidad para la asociación entre partes}{figure.caption.10}{}}
\@writefile{lof}{\contentsline {figure}{\numberline {2.5}{\ignorespaces Part Affinity Fields \cite  {cao2017realtime}\relax }}{15}{figure.caption.10}}
\newlabel{fig:comp}{{\caption@xref {fig:comp}{ on input line 173}}{15}{Campos de afinidad para la asociación entre partes}{figure.caption.11}{}}
\@writefile{lof}{\contentsline {figure}{\numberline {2.6}{\ignorespaces Ejemplo de la asociaci\IeC {\'o}n entre partes aplicada a un brazo \cite  {cao2017realtime}\relax }}{15}{figure.caption.11}}
\citation{West}
\newlabel{integral-PAF}{{2.12}{16}{Campos de afinidad para la asociación entre partes}{equation.2.2.12}{}}
\citation{West}
\@writefile{toc}{\contentsline {subsubsection}{Parsing multi-persona utilizando campos de afinidad entre partes}{17}{section*.12}}
\citation{West}
\citation{MPII}
\citation{COCO}
\newlabel{res-1}{{2.15}{18}{Parsing multi-persona utilizando campos de afinidad entre partes}{equation.2.2.15}{}}
\newlabel{res-2}{{2.16}{18}{Parsing multi-persona utilizando campos de afinidad entre partes}{equation.2.2.16}{}}
\@writefile{toc}{\contentsline {subsubsection}{Evaluaci\IeC {\'o}n del m\IeC {\'e}todo al momento de su lanzamiento}{18}{section*.13}}
\citation{cao2017realtime}
\citation{cao2017realtime}
\citation{MPII}
\FN@pp@footnote@aux{5}{19}
\@writefile{lof}{\contentsline {figure}{\numberline {2.7}{\ignorespaces Resultados de OpenPose enl MPII Multi-Person benchmark \cite  {cao2017realtime}\relax }}{19}{figure.caption.14}}
\newlabel{fig:openPose-MPII-results}{{2.7}{19}{Resultados de OpenPose enl MPII Multi-Person benchmark \cite {cao2017realtime}\relax }{figure.caption.14}{}}
\citation{cao2017realtime}
\citation{cao2017realtime}
\citation{MPII}
\FN@pp@footnote@aux{6}{20}
\@writefile{lof}{\contentsline {figure}{\numberline {2.8}{\ignorespaces Resultados de OpenPose en desaf\IeC {\'\i }o COCO 2016 \cite  {cao2017realtime}\relax }}{20}{figure.caption.15}}
\newlabel{fig:OpenPose-COCO-results}{{2.8}{20}{Resultados de OpenPose en desafío COCO 2016 \cite {cao2017realtime}\relax }{figure.caption.15}{}}
\@writefile{toc}{\contentsline {subsection}{\numberline {2.2.3}Estado del arte}{20}{subsection.2.2.3}}
\citation{MPII}
\citation{MPII}
\citation{Newell}
\newlabel{fig:comp}{{\caption@xref {fig:comp}{ on input line 289}}{21}{Estado del arte}{figure.caption.16}{}}
\@writefile{lof}{\contentsline {figure}{\numberline {2.9}{\ignorespaces Resultados del desaf\IeC {\'\i }o MPII multi-person benchmark, modalidad conjunto completo. \textit  {Cao et al} identifica a OpenPose. \textbf  {Fuente}: Sitio web de MPII multi-person benchmark\cite  {MPII}\relax }}{21}{figure.caption.16}}
\newlabel{MPII-results}{{2.9}{21}{Resultados del desafío MPII multi-person benchmark, modalidad conjunto completo. \textit {Cao et al} identifica a OpenPose. \textbf {Fuente}: Sitio web de MPII multi-person benchmark\cite {MPII}\relax }{figure.caption.16}{}}
\@writefile{toc}{\contentsline {subsubsection}{Associative embedding}{21}{section*.17}}
\citation{FangXL16}
\citation{Fieraru}
\citation{Fieraru}
\citation{Fieraru}
\@writefile{toc}{\contentsline {subsubsection}{RMPE: Regional Multi-Person Pose Estimation}{22}{section*.18}}
\@writefile{toc}{\contentsline {subsubsection}{PoseRefiner}{22}{section*.19}}
\newlabel{fig:comp}{{\caption@xref {fig:comp}{ on input line 308}}{23}{PoseRefiner}{figure.caption.20}{}}
\@writefile{lof}{\contentsline {figure}{\numberline {2.10}{\ignorespaces Resumen del m\IeC {\'e}todo aplicado por PoseRefiner. \textbf  {Fuente}: Learning to refine Human Pose estimation \cite  {Fieraru}\relax }}{23}{figure.caption.20}}
\newlabel{Fieraru-pipeline}{{2.10}{23}{Resumen del método aplicado por PoseRefiner. \textbf {Fuente}: Learning to refine Human Pose estimation \cite {Fieraru}\relax }{figure.caption.20}{}}
\@writefile{toc}{\contentsline {section}{\numberline {2.3}Seguimiento de objetos}{23}{section.2.3}}
\@writefile{toc}{\contentsline {subsection}{\numberline {2.3.1}Definici\IeC {\'o}n del problema}{23}{subsection.2.3.1}}
\citation{yuetal}
\citation{SORT}
\citation{multiplehipotesis}
\@writefile{toc}{\contentsline {subsection}{\numberline {2.3.2}Seguimiento por detecci\IeC {\'o}n (DBT)}{25}{subsection.2.3.2}}
\@writefile{toc}{\contentsline {subsubsection}{Detecci\IeC {\'o}n}{25}{section*.21}}
\citation{avidan}
\citation{krizhevsky}
\citation{trackoptical}
\citation{trackrnn1}
\citation{trackrnn2}
\citation{trackparticles1}
\@writefile{toc}{\contentsline {subsubsection}{Predicci\IeC {\'o}n}{26}{section*.22}}
\citation{kalman1960}
\citation{kalmanintro}
\citation{hungarian}
\citation{hungarianorder}
\@writefile{toc}{\contentsline {subsubsection}{Asociaci\IeC {\'o}n}{29}{section*.23}}
\citation{SORT}
\citation{DEEPSORT}
\citation{bernardin}
\@writefile{toc}{\contentsline {subsubsection}{M\IeC {\'e}tricas de evaluaci\IeC {\'o}n}{30}{section*.24}}
\citation{SORT}
\citation{DEEPSORT}
\@writefile{toc}{\contentsline {subsection}{\numberline {2.3.3}Algoritmos de seguimiento}{31}{subsection.2.3.3}}
\citation{frcnn}
\@writefile{toc}{\contentsline {subsection}{\numberline {2.3.4}SORT}{32}{subsection.2.3.4}}
\citation{SORT}
\citation{DEEPSORT}
\@writefile{loa}{\contentsline {algocf}{\numberline {1}{\ignorespaces SORT Tracking\relax }}{34}{algocf.1}}
\newlabel{alg:sort}{{1}{34}{SORT}{algocf.1}{}}
\@writefile{toc}{\contentsline {subsection}{\numberline {2.3.5}Deep SORT}{34}{subsection.2.3.5}}
\citation{mars}
\citation{DEEPSORT}
\citation{DEEPSORT}
\citation{LMP}
\citation{yuetal}
\citation{SORT}
\citation{DEEPSORT}
\citation{LMP}
\citation{yuetal}
\@writefile{lot}{\contentsline {table}{\numberline {2.1}{\ignorespaces Resultados de algoritmos de seguimiento en el desaf\IeC {\'\i }o MOT16. \cite  {DEEPSORT}\relax }}{36}{table.caption.26}}
\newlabel{tab:mot16}{{2.1}{36}{Resultados de algoritmos de seguimiento en el desafío MOT16. \cite {DEEPSORT}\relax }{table.caption.26}{}}
\@writefile{toc}{\contentsline {subsection}{\numberline {2.3.6}Comparaci\IeC {\'o}n de resultados}{36}{subsection.2.3.6}}
\FN@pp@footnotehinttrue 
\@setckpt{capitulos/chap02}{
\setcounter{page}{38}
\setcounter{equation}{38}
\setcounter{enumi}{0}
\setcounter{enumii}{0}
\setcounter{enumiii}{0}
\setcounter{enumiv}{0}
\setcounter{footnote}{0}
\setcounter{mpfootnote}{0}
\setcounter{part}{0}
\setcounter{chapter}{2}
\setcounter{section}{3}
\setcounter{subsection}{6}
\setcounter{subsubsection}{0}
\setcounter{paragraph}{0}
\setcounter{subparagraph}{0}
\setcounter{figure}{10}
\setcounter{table}{1}
\setcounter{Changes@AuthorCount}{2}
\setcounter{Changes@Author}{0}
\setcounter{Changes@AddCount}{0}
\setcounter{Changes@DeleteCount}{0}
\setcounter{Changes@ReplaceCount}{0}
\setcounter{pp@next@reset}{7}
\setcounter{@fnserial}{6}
\setcounter{@pps}{0}
\setcounter{@ppsavesec}{0}
\setcounter{@ppsaveapp}{0}
\setcounter{parentequation}{0}
\setcounter{float@type}{4}
\setcounter{ContinuedFloat}{0}
\setcounter{Item}{0}
\setcounter{Hfootnote}{6}
\setcounter{bookmark@seq@number}{17}
\setcounter{linenumber}{0}
\setcounter{LN@truepage}{44}
\setcounter{@todonotes@numberoftodonotes}{0}
\setcounter{institute}{1}
\setcounter{seconduniversity}{0}
\setcounter{thirduniversity}{0}
\setcounter{keywords}{0}
\setcounter{foreignkeywords}{5}
\setcounter{su@anzahl}{0}
\setcounter{LT@tables}{0}
\setcounter{LT@chunks}{0}
\setcounter{NAT@ctr}{0}
\setcounter{Changes@AddCountPRB}{0}
\setcounter{Changes@DeleteCountPRB}{0}
\setcounter{Changes@ReplaceCountPRB}{0}
\setcounter{AlgoLine}{0}
\setcounter{algocfline}{1}
\setcounter{algocfproc}{1}
\setcounter{algocf}{1}
\setcounter{section@level}{2}
}
