\relax 
\providecommand\hyper@newdestlabel[2]{}
\catcode `"\active 
\catcode `<\active 
\catcode `>\active 
\@nameuse{es@quoting}
\providecommand\HyperFirstAtBeginDocument{\AtBeginDocument}
\HyperFirstAtBeginDocument{\ifx\hyper@anchor\@undefined
\global\let\oldcontentsline\contentsline
\gdef\contentsline#1#2#3#4{\oldcontentsline{#1}{#2}{#3}}
\global\let\oldnewlabel\newlabel
\gdef\newlabel#1#2{\newlabelxx{#1}#2}
\gdef\newlabelxx#1#2#3#4#5#6{\oldnewlabel{#1}{{#2}{#3}}}
\AtEndDocument{\ifx\hyper@anchor\@undefined
\let\contentsline\oldcontentsline
\let\newlabel\oldnewlabel
\fi}
\fi}
\global\let\hyper@last\relax 
\gdef\HyperFirstAtBeginDocument#1{#1}
\providecommand\HyField@AuxAddToFields[1]{}
\providecommand\HyField@AuxAddToCoFields[2]{}
\bibstyle{estilos_bibliograficos/natbib/numbers/apalike}
\providecommand\@newglossary[4]{}
\@newglossary{main}{glg}{gls}{glo}
\@newglossary{acronym}{alg}{acr}{acn}
\@newglossary{simbolos}{simbolos-glg}{simbolos-gls}{simbolos-glo}
\@newglossary{notacion}{notacion-glg}{notacion-gls}{notacion-glo}
\@newglossary{glosario}{glosario-glg}{glosario-gls}{glosario-glo}
\providecommand \oddpage@label [2]{}
\providecommand {\FN@pp@footnotehinttrue }{}
\providecommand {\FN@pp@footnote@aux }[2]{}
\babel@aux{spanish}{}
\providecommand\@gls@reference[3]{}
\FN@pp@footnotehinttrue 
\FN@pp@footnotehinttrue 
\FN@pp@footnotehinttrue 
\FN@pp@footnotehinttrue 
\FN@pp@footnotehinttrue 
\@input{resumen/resumen.aux}
\FN@pp@footnotehinttrue 
\newlabel{front:pageno}{{}{VII}{}{page.VII}{}}
\FN@pp@footnotehinttrue 
\@input{capitulos/chap01.aux}
\FN@pp@footnotehinttrue 
\@input{capitulos/chap02.aux}
\FN@pp@footnotehinttrue 
\@input{capitulos/chap03.aux}
\FN@pp@footnotehinttrue 
\@input{capitulos/chap04.aux}
\FN@pp@footnotehinttrue 
\@input{capitulos/chap05.aux}
\FN@pp@footnotehinttrue 
\newlabel{bib:begin}{{}{78}{}{page.78}{}}
\bibdata{bibliografia/biblio_1,bibliografia/biblio_2}
\bibcite{amazongo}{{1}{2018}{{Amazon}}{{}}}
\bibcite{MPII}{{2}{2014}{{Andriluka et~al.}}{{}}}
\bibcite{angellist}{{3}{2018}{{Angel List}}{{}}}
\bibcite{avidan}{{4}{2004}{{Avidan}}{{}}}
\bibcite{bernardin}{{5}{2008}{{Bernardin and Stiefelhagen}}{{}}}
\bibcite{SORT}{{6}{2016}{{Bewley et~al.}}{{}}}
\bibcite{brickstream}{{7}{2018}{{Brickstream}}{{}}}
\bibcite{cao2017realtime}{{8}{2017}{{Cao et~al.}}{{}}}
\bibcite{meraki}{{9}{2018}{{Cisco}}{{}}}
\bibcite{accenture}{{10}{2018}{{Cristopher Donnelly, Renato Scaff}}{{}}}
\FN@pp@footnotehinttrue 
\FN@pp@footnotehinttrue 
\@writefile{toc}{\contentsline {chapter}{Referencias bibliogr\IeC {\'a}ficas}{78}{chapter*.53}}
\bibcite{rawrecognition}{{11}{2017}{{Ding and Xu}}{{}}}
\bibcite{hungarianorder}{{12}{1972}{{Edmonds and Karp}}{{}}}
\bibcite{West}{{13}{2001}{{et~al}}{{}}}
\bibcite{FangXL16}{{14}{2016}{{Fang et~al.}}{{}}}
\bibcite{PictStruct}{{15}{2005}{{Felzenszwalb and Huttenlocher}}{{}}}
\bibcite{FisElsc}{{16}{1973}{{Fischler and Elschlager}}{{}}}
\bibcite{outperform}{{17}{2015}{{He et~al.}}{{}}}
\bibcite{inmarket}{{18}{2018}{{Inmarket}}{{}}}
\bibcite{irisys}{{19}{2018}{{Irisys}}{{}}}
\bibcite{kalman1960}{{20}{1960}{{Kalman and Others}}{{}}}
\bibcite{VGG-19}{{21}{2015}{{Karen~Simonyan}}{{}}}
\bibcite{retail-bifurcation}{{22}{2018}{{Kasey Lobaugh, Bobby Stephens, Christina Bieniek, Preeti Pincha}}{{}}}
\bibcite{LMP}{{23}{2016}{{Keuper et~al.}}{{}}}
\bibcite{multiplehipotesis}{{24}{2015}{{Kim et~al.}}{{}}}
\bibcite{skeletonrecognition2}{{25}{2017}{{Kim and Reiter}}{{}}}
\bibcite{krizhevsky}{{26}{2012}{{Krizhevsky et~al.}}{{}}}
\bibcite{2dto3d}{{27}{2018}{{Kudo et~al.}}{{}}}
\bibcite{hungarian}{{28}{1955}{{Kuhn and Yaw}}{{}}}
\bibcite{rawrecognition2}{{29}{2017}{{Lea et~al.}}{{}}}
\bibcite{Ever}{{30}{2010}{{M.~Everingham and Zisserman}}{{}}}
\bibcite{marketing-charts}{{31}{2016}{{Marketing charts}}{{}}}
\bibcite{Fieraru}{{32}{2018}{{Mihai~Fieraru}}{{}}}
\bibcite{trackrnn1}{{33}{2016}{{Milan et~al.}}{{}}}
\bibcite{Newell}{{34}{2016}{{Newell and Deng}}{{}}}
\bibcite{trackrnn2}{{35}{2016}{{Ondruska and Posner}}{{}}}
\bibcite{PFelz}{{36}{2013}{{P.~Felzenswalb and Ramanan}}{{}}}
\bibcite{pykalman}{{37}{2018}{{PyKalman}}{{}}}
\bibcite{frcnn}{{38}{2015}{{Ren et~al.}}{{}}}
\bibcite{deepcc}{{39}{2018}{{Ristani and Tomasi}}{{}}}
\bibcite{Wei-et-al}{{40}{2016}{{S.-E.~Wei and Sheikh}}{{}}}
\bibcite{generaldeep}{{41}{2015}{{Schmidhuber}}{{}}}
\bibcite{trackparticles1}{{42}{2005}{{Smith et~al.}}{{}}}
\bibcite{scognition}{{43}{2018}{{Standard Cognition Corporation}}{{}}}
\bibcite{swirl}{{44}{2018}{{Swirl}}{{}}}
\bibcite{comp-vision}{{45}{1996}{{T. S. Huang}}{{}}}
\bibcite{COCO}{{46}{2014}{{T.-Y.~Lin and Zitnick}}{{}}}
\bibcite{kalmanintro}{{47}{1995}{{Welch and Bishop}}{{}}}
\bibcite{DEEPSORT}{{48}{2017}{{Wojke et~al.}}{{}}}
\bibcite{DeepSortRrepo}{{49}{2018}{{Wojke et~al.}}{{}}}
\bibcite{xovis}{{50}{2018}{{Xovis}}{{}}}
\bibcite{skeletonrecognition}{{51}{2018}{{Yan et~al.}}{{}}}
\bibcite{yuetal}{{52}{2016}{{Yu et~al.}}{{}}}
\bibcite{trackoptical}{{53}{2015}{{Yu~Xiang and Savarese}}{{}}}
\bibcite{dukeprogress}{{54}{2017}{{Zhang et~al.}}{{}}}
\bibcite{mars}{{55}{2016}{{Zheng et~al.}}{{}}}
\newlabel{bib:end}{{}{82}{}{page.82}{}}
\FN@pp@footnotehinttrue 
\newlabel{LastPage}{{}{82}{}{page.82}{}}
\xdef\lastpage@lastpage{82}
\xdef\lastpage@lastpageHy{82}
\expandafter\gdef\csname eqp@this@signture@list\endcsname{199.16931pt}
\expandafter\gdef\csname eqp@next@signture@list\endcsname{0pt}
\xwm@secstopagerange{{1.1}{1},{1.2}{3},{1.3}{3},{2.1}{5},{2.2}{7},{2.2}{8},{2.2}{10},{2.2}{20},{2.3}{23},{2.3}{23},{2.3}{25},{2.3}{31},{2.3}{32},{2.3}{34},{2.3}{36},{3.1}{38},{3.2}{39},{3.3}{41},{3.3}{46},{3.4}{47},{4.1}{52},{4.2}{53},{4.2}{55},{4.2}{57},{4.2}{62},{4.3}{64},{4.3}{65},{4.3}{65},{4.3}{66},{4.3}{68},{10000}{82}}
\ttl@finishall
\newlabel{xwmlastpage}{{5}{82}{Conclusiones y trabajos a futuro\relax }{chapter*.53}{}}
